import 'dart:async';
import 'dart:convert';

import 'package:flutter/material.dart';
import 'package:http/http.dart' as http;

Future<Post> fetchPost() async {
  final response =
      await http.get('https://jsonplaceholder.typicode.com/posts/1');

  if (response.statusCode == 200) {
    // Si la llamada al servidor fue exitosa, analiza el JSON
    return Post.fromJson(json.decode(response.body));
  } else {
    // Si la llamada no fue exitosa, lanza un error.
    throw Exception('Failed to load post');
  }
}

class Post {
  final int userId;
  final int id;
  final String title;
  final String body;

  Post({this.userId, this.id, this.title, this.body});

  factory Post.fromJson(Map<String, dynamic> json) {
    return Post(
      userId: json['userId'],
      id: json['id'],
      title: json['title'],
      body: json['body'],
    );
  }
}

void main() => runApp(MyApp(post: fetchPost()));

class MyApp extends StatelessWidget {
  final Future<Post> post;

  MyApp({Key key, this.post}) : super(key: key);

  @override
  Widget build(BuildContext context) {
    return MaterialApp(
      title: 'Fetch Data Example',
      theme: ThemeData(
        primarySwatch: Colors.blue,
      ),
      home: Scaffold(
        appBar: AppBar(
          title: Text('Fetch Data Example'),
        ),
        body: Center(
          child: FutureBuilder<Post>(
            future: post,
            builder: (context, snapshot) {
              if (snapshot.hasData) {
                return Text(snapshot.data.title);
              } else if (snapshot.hasError) {
                return Text("${snapshot.error}");
              }

              // Por defecto, muestra un loading spinner
              return CircularProgressIndicator();
            },
          ),
        ),
      ),
    );
  }
}
